(kicad_sch (version 20210621) (generator eeschema)

  (uuid d371338d-07c7-4014-b8cd-d670d021bfd5)

  (paper "User" 304.013 218.999)

  (lib_symbols
    (symbol "Connector:Conn_01x02_Male" (pin_names (offset 1.016) hide) (in_bom yes) (on_board yes)
      (property "Reference" "J" (id 0) (at 0 2.54 0)
        (effects (font (size 1.27 1.27)))
      )
      (property "Value" "Conn_01x02_Male" (id 1) (at 0 -5.08 0)
        (effects (font (size 1.27 1.27)))
      )
      (property "Footprint" "" (id 2) (at 0 0 0)
        (effects (font (size 1.27 1.27)) hide)
      )
      (property "Datasheet" "~" (id 3) (at 0 0 0)
        (effects (font (size 1.27 1.27)) hide)
      )
      (property "ki_keywords" "connector" (id 4) (at 0 0 0)
        (effects (font (size 1.27 1.27)) hide)
      )
      (property "ki_description" "Generic connector, single row, 01x02, script generated (kicad-library-utils/schlib/autogen/connector/)" (id 5) (at 0 0 0)
        (effects (font (size 1.27 1.27)) hide)
      )
      (property "ki_fp_filters" "Connector*:*_1x??_*" (id 6) (at 0 0 0)
        (effects (font (size 1.27 1.27)) hide)
      )
      (symbol "Conn_01x02_Male_1_1"
        (rectangle (start 0.8636 -2.413) (end 0 -2.667)
          (stroke (width 0.1524)) (fill (type outline))
        )
        (rectangle (start 0.8636 0.127) (end 0 -0.127)
          (stroke (width 0.1524)) (fill (type outline))
        )
        (polyline
          (pts
            (xy 1.27 -2.54)
            (xy 0.8636 -2.54)
          )
          (stroke (width 0.1524)) (fill (type none))
        )
        (polyline
          (pts
            (xy 1.27 0)
            (xy 0.8636 0)
          )
          (stroke (width 0.1524)) (fill (type none))
        )
        (pin passive line (at 5.08 0 180) (length 3.81)
          (name "Pin_1" (effects (font (size 1.27 1.27))))
          (number "1" (effects (font (size 1.27 1.27))))
        )
        (pin passive line (at 5.08 -2.54 180) (length 3.81)
          (name "Pin_2" (effects (font (size 1.27 1.27))))
          (number "2" (effects (font (size 1.27 1.27))))
        )
      )
    )
    (symbol "Connector:Conn_01x08_Male" (pin_names (offset 1.016) hide) (in_bom yes) (on_board yes)
      (property "Reference" "J" (id 0) (at 0 10.16 0)
        (effects (font (size 1.27 1.27)))
      )
      (property "Value" "Conn_01x08_Male" (id 1) (at 0 -12.7 0)
        (effects (font (size 1.27 1.27)))
      )
      (property "Footprint" "" (id 2) (at 0 0 0)
        (effects (font (size 1.27 1.27)) hide)
      )
      (property "Datasheet" "~" (id 3) (at 0 0 0)
        (effects (font (size 1.27 1.27)) hide)
      )
      (property "ki_keywords" "connector" (id 4) (at 0 0 0)
        (effects (font (size 1.27 1.27)) hide)
      )
      (property "ki_description" "Generic connector, single row, 01x08, script generated (kicad-library-utils/schlib/autogen/connector/)" (id 5) (at 0 0 0)
        (effects (font (size 1.27 1.27)) hide)
      )
      (property "ki_fp_filters" "Connector*:*_1x??_*" (id 6) (at 0 0 0)
        (effects (font (size 1.27 1.27)) hide)
      )
      (symbol "Conn_01x08_Male_1_1"
        (rectangle (start 0.8636 -10.033) (end 0 -10.287)
          (stroke (width 0.1524)) (fill (type outline))
        )
        (rectangle (start 0.8636 -7.493) (end 0 -7.747)
          (stroke (width 0.1524)) (fill (type outline))
        )
        (rectangle (start 0.8636 -4.953) (end 0 -5.207)
          (stroke (width 0.1524)) (fill (type outline))
        )
        (rectangle (start 0.8636 -2.413) (end 0 -2.667)
          (stroke (width 0.1524)) (fill (type outline))
        )
        (rectangle (start 0.8636 0.127) (end 0 -0.127)
          (stroke (width 0.1524)) (fill (type outline))
        )
        (rectangle (start 0.8636 2.667) (end 0 2.413)
          (stroke (width 0.1524)) (fill (type outline))
        )
        (rectangle (start 0.8636 5.207) (end 0 4.953)
          (stroke (width 0.1524)) (fill (type outline))
        )
        (rectangle (start 0.8636 7.747) (end 0 7.493)
          (stroke (width 0.1524)) (fill (type outline))
        )
        (polyline
          (pts
            (xy 1.27 -10.16)
            (xy 0.8636 -10.16)
          )
          (stroke (width 0.1524)) (fill (type none))
        )
        (polyline
          (pts
            (xy 1.27 -7.62)
            (xy 0.8636 -7.62)
          )
          (stroke (width 0.1524)) (fill (type none))
        )
        (polyline
          (pts
            (xy 1.27 -5.08)
            (xy 0.8636 -5.08)
          )
          (stroke (width 0.1524)) (fill (type none))
        )
        (polyline
          (pts
            (xy 1.27 -2.54)
            (xy 0.8636 -2.54)
          )
          (stroke (width 0.1524)) (fill (type none))
        )
        (polyline
          (pts
            (xy 1.27 0)
            (xy 0.8636 0)
          )
          (stroke (width 0.1524)) (fill (type none))
        )
        (polyline
          (pts
            (xy 1.27 2.54)
            (xy 0.8636 2.54)
          )
          (stroke (width 0.1524)) (fill (type none))
        )
        (polyline
          (pts
            (xy 1.27 5.08)
            (xy 0.8636 5.08)
          )
          (stroke (width 0.1524)) (fill (type none))
        )
        (polyline
          (pts
            (xy 1.27 7.62)
            (xy 0.8636 7.62)
          )
          (stroke (width 0.1524)) (fill (type none))
        )
        (pin passive line (at 5.08 7.62 180) (length 3.81)
          (name "Pin_1" (effects (font (size 1.27 1.27))))
          (number "1" (effects (font (size 1.27 1.27))))
        )
        (pin passive line (at 5.08 5.08 180) (length 3.81)
          (name "Pin_2" (effects (font (size 1.27 1.27))))
          (number "2" (effects (font (size 1.27 1.27))))
        )
        (pin passive line (at 5.08 2.54 180) (length 3.81)
          (name "Pin_3" (effects (font (size 1.27 1.27))))
          (number "3" (effects (font (size 1.27 1.27))))
        )
        (pin passive line (at 5.08 0 180) (length 3.81)
          (name "Pin_4" (effects (font (size 1.27 1.27))))
          (number "4" (effects (font (size 1.27 1.27))))
        )
        (pin passive line (at 5.08 -2.54 180) (length 3.81)
          (name "Pin_5" (effects (font (size 1.27 1.27))))
          (number "5" (effects (font (size 1.27 1.27))))
        )
        (pin passive line (at 5.08 -5.08 180) (length 3.81)
          (name "Pin_6" (effects (font (size 1.27 1.27))))
          (number "6" (effects (font (size 1.27 1.27))))
        )
        (pin passive line (at 5.08 -7.62 180) (length 3.81)
          (name "Pin_7" (effects (font (size 1.27 1.27))))
          (number "7" (effects (font (size 1.27 1.27))))
        )
        (pin passive line (at 5.08 -10.16 180) (length 3.81)
          (name "Pin_8" (effects (font (size 1.27 1.27))))
          (number "8" (effects (font (size 1.27 1.27))))
        )
      )
    )
    (symbol "Device:C" (pin_numbers hide) (pin_names (offset 0.254)) (in_bom yes) (on_board yes)
      (property "Reference" "C" (id 0) (at 0.635 2.54 0)
        (effects (font (size 1.27 1.27)) (justify left))
      )
      (property "Value" "C" (id 1) (at 0.635 -2.54 0)
        (effects (font (size 1.27 1.27)) (justify left))
      )
      (property "Footprint" "" (id 2) (at 0.9652 -3.81 0)
        (effects (font (size 1.27 1.27)) hide)
      )
      (property "Datasheet" "~" (id 3) (at 0 0 0)
        (effects (font (size 1.27 1.27)) hide)
      )
      (property "ki_keywords" "cap capacitor" (id 4) (at 0 0 0)
        (effects (font (size 1.27 1.27)) hide)
      )
      (property "ki_description" "Unpolarized capacitor" (id 5) (at 0 0 0)
        (effects (font (size 1.27 1.27)) hide)
      )
      (property "ki_fp_filters" "C_*" (id 6) (at 0 0 0)
        (effects (font (size 1.27 1.27)) hide)
      )
      (symbol "C_0_1"
        (polyline
          (pts
            (xy -2.032 -0.762)
            (xy 2.032 -0.762)
          )
          (stroke (width 0.508)) (fill (type none))
        )
        (polyline
          (pts
            (xy -2.032 0.762)
            (xy 2.032 0.762)
          )
          (stroke (width 0.508)) (fill (type none))
        )
      )
      (symbol "C_1_1"
        (pin passive line (at 0 3.81 270) (length 2.794)
          (name "~" (effects (font (size 1.27 1.27))))
          (number "1" (effects (font (size 1.27 1.27))))
        )
        (pin passive line (at 0 -3.81 90) (length 2.794)
          (name "~" (effects (font (size 1.27 1.27))))
          (number "2" (effects (font (size 1.27 1.27))))
        )
      )
    )
    (symbol "Device:C_Small" (pin_numbers hide) (pin_names (offset 0.254) hide) (in_bom yes) (on_board yes)
      (property "Reference" "C" (id 0) (at 0.254 1.778 0)
        (effects (font (size 1.27 1.27)) (justify left))
      )
      (property "Value" "C_Small" (id 1) (at 0.254 -2.032 0)
        (effects (font (size 1.27 1.27)) (justify left))
      )
      (property "Footprint" "" (id 2) (at 0 0 0)
        (effects (font (size 1.27 1.27)) hide)
      )
      (property "Datasheet" "~" (id 3) (at 0 0 0)
        (effects (font (size 1.27 1.27)) hide)
      )
      (property "ki_keywords" "capacitor cap" (id 4) (at 0 0 0)
        (effects (font (size 1.27 1.27)) hide)
      )
      (property "ki_description" "Unpolarized capacitor, small symbol" (id 5) (at 0 0 0)
        (effects (font (size 1.27 1.27)) hide)
      )
      (property "ki_fp_filters" "C_*" (id 6) (at 0 0 0)
        (effects (font (size 1.27 1.27)) hide)
      )
      (symbol "C_Small_0_1"
        (polyline
          (pts
            (xy -1.524 -0.508)
            (xy 1.524 -0.508)
          )
          (stroke (width 0.3302)) (fill (type none))
        )
        (polyline
          (pts
            (xy -1.524 0.508)
            (xy 1.524 0.508)
          )
          (stroke (width 0.3048)) (fill (type none))
        )
      )
      (symbol "C_Small_1_1"
        (pin passive line (at 0 2.54 270) (length 2.032)
          (name "~" (effects (font (size 1.27 1.27))))
          (number "1" (effects (font (size 1.27 1.27))))
        )
        (pin passive line (at 0 -2.54 90) (length 2.032)
          (name "~" (effects (font (size 1.27 1.27))))
          (number "2" (effects (font (size 1.27 1.27))))
        )
      )
    )
    (symbol "Device:R" (pin_numbers hide) (pin_names (offset 0)) (in_bom yes) (on_board yes)
      (property "Reference" "R" (id 0) (at 2.032 0 90)
        (effects (font (size 1.27 1.27)))
      )
      (property "Value" "R" (id 1) (at 0 0 90)
        (effects (font (size 1.27 1.27)))
      )
      (property "Footprint" "" (id 2) (at -1.778 0 90)
        (effects (font (size 1.27 1.27)) hide)
      )
      (property "Datasheet" "~" (id 3) (at 0 0 0)
        (effects (font (size 1.27 1.27)) hide)
      )
      (property "ki_keywords" "R res resistor" (id 4) (at 0 0 0)
        (effects (font (size 1.27 1.27)) hide)
      )
      (property "ki_description" "Resistor" (id 5) (at 0 0 0)
        (effects (font (size 1.27 1.27)) hide)
      )
      (property "ki_fp_filters" "R_*" (id 6) (at 0 0 0)
        (effects (font (size 1.27 1.27)) hide)
      )
      (symbol "R_0_1"
        (rectangle (start -1.016 -2.54) (end 1.016 2.54)
          (stroke (width 0.254)) (fill (type none))
        )
      )
      (symbol "R_1_1"
        (pin passive line (at 0 3.81 270) (length 1.27)
          (name "~" (effects (font (size 1.27 1.27))))
          (number "1" (effects (font (size 1.27 1.27))))
        )
        (pin passive line (at 0 -3.81 90) (length 1.27)
          (name "~" (effects (font (size 1.27 1.27))))
          (number "2" (effects (font (size 1.27 1.27))))
        )
      )
    )
    (symbol "TMC2208:TMC2208-LA" (in_bom yes) (on_board yes)
      (property "Reference" "U1" (id 0) (at -15.24 29.21 0)
        (effects (font (size 1.27 1.27)) (justify left bottom))
      )
      (property "Value" "TMC2208-LA" (id 1) (at -15.24 -31.75 0)
        (effects (font (size 1.27 1.27)) (justify left top))
      )
      (property "Footprint" "TMC2208:QFN-28_EP_5x5_Pitch0.5mm" (id 2) (at 0 0 0)
        (effects (font (size 1.27 1.27)) hide)
      )
      (property "Datasheet" "" (id 3) (at 0 0 0)
        (effects (font (size 1.27 1.27)) hide)
      )
      (symbol "TMC2208-LA_1_0"
        (pin output line (at 20.32 -15.24 180) (length 5.08)
          (name "OB2" (effects (font (size 1.27 1.27))))
          (number "1" (effects (font (size 1.27 1.27))))
        )
        (pin bidirectional line (at -20.32 -12.7 0) (length 5.08)
          (name "MS2" (effects (font (size 1.27 1.27))))
          (number "10" (effects (font (size 1.27 1.27))))
        )
        (pin bidirectional line (at -20.32 -2.54 0) (length 5.08)
          (name "DIAG" (effects (font (size 1.27 1.27))))
          (number "11" (effects (font (size 1.27 1.27))))
        )
        (pin bidirectional line (at -20.32 -5.08 0) (length 5.08)
          (name "INDEX" (effects (font (size 1.27 1.27))))
          (number "12" (effects (font (size 1.27 1.27))))
        )
        (pin bidirectional line (at -20.32 -17.78 0) (length 5.08)
          (name "CLK" (effects (font (size 1.27 1.27))))
          (number "13" (effects (font (size 1.27 1.27))))
        )
        (pin bidirectional line (at -20.32 -22.86 0) (length 5.08)
          (name "PDN_UART" (effects (font (size 1.27 1.27))))
          (number "14" (effects (font (size 1.27 1.27))))
        )
        (pin power_in line (at -20.32 25.4 0) (length 5.08)
          (name "VCC_IO" (effects (font (size 1.27 1.27))))
          (number "15" (effects (font (size 1.27 1.27))))
        )
        (pin bidirectional line (at -20.32 5.08 0) (length 5.08)
          (name "STEP" (effects (font (size 1.27 1.27))))
          (number "16" (effects (font (size 1.27 1.27))))
        )
        (pin passive line (at -20.32 -27.94 0) (length 5.08)
          (name "VREF" (effects (font (size 1.27 1.27))))
          (number "17" (effects (font (size 1.27 1.27))))
        )
        (pin power_in line (at -20.32 15.24 0) (length 5.08)
          (name "GND" (effects (font (size 1.27 1.27))))
          (number "18" (effects (font (size 0 0))))
        )
        (pin bidirectional line (at -20.32 2.54 0) (length 5.08)
          (name "DIR" (effects (font (size 1.27 1.27))))
          (number "19" (effects (font (size 1.27 1.27))))
        )
        (pin bidirectional line (at -20.32 10.16 0) (length 5.08)
          (name "ENN" (effects (font (size 1.27 1.27))))
          (number "2" (effects (font (size 1.27 1.27))))
        )
        (pin output line (at 20.32 -5.08 180) (length 5.08)
          (name "OA2" (effects (font (size 1.27 1.27))))
          (number "21" (effects (font (size 1.27 1.27))))
        )
        (pin power_in line (at 20.32 25.4 180) (length 5.08)
          (name "VS" (effects (font (size 1.27 1.27))))
          (number "22" (effects (font (size 0 0))))
        )
        (pin output line (at 20.32 -22.86 180) (length 5.08)
          (name "BRA" (effects (font (size 1.27 1.27))))
          (number "23" (effects (font (size 1.27 1.27))))
        )
        (pin output line (at 20.32 0 180) (length 5.08)
          (name "OA1" (effects (font (size 1.27 1.27))))
          (number "24" (effects (font (size 1.27 1.27))))
        )
        (pin output line (at 20.32 -10.16 180) (length 5.08)
          (name "OB1" (effects (font (size 1.27 1.27))))
          (number "26" (effects (font (size 1.27 1.27))))
        )
        (pin output line (at 20.32 -27.94 180) (length 5.08)
          (name "BRB" (effects (font (size 1.27 1.27))))
          (number "27" (effects (font (size 1.27 1.27))))
        )
        (pin power_in line (at 20.32 25.4 180) (length 5.08)
          (name "VS" (effects (font (size 1.27 1.27))))
          (number "28" (effects (font (size 0 0))))
        )
        (pin power_in line (at -20.32 15.24 0) (length 5.08)
          (name "GND" (effects (font (size 1.27 1.27))))
          (number "29" (effects (font (size 0 0))))
        )
        (pin power_in line (at -20.32 15.24 0) (length 5.08)
          (name "GND" (effects (font (size 1.27 1.27))))
          (number "3" (effects (font (size 0 0))))
        )
        (pin passive line (at 20.32 7.62 180) (length 5.08)
          (name "CPO" (effects (font (size 1.27 1.27))))
          (number "4" (effects (font (size 1.27 1.27))))
        )
        (pin passive line (at 20.32 12.7 180) (length 5.08)
          (name "CPI" (effects (font (size 1.27 1.27))))
          (number "5" (effects (font (size 1.27 1.27))))
        )
        (pin passive line (at 20.32 17.78 180) (length 5.08)
          (name "VCP" (effects (font (size 1.27 1.27))))
          (number "6" (effects (font (size 1.27 1.27))))
        )
        (pin power_out line (at -20.32 20.32 0) (length 5.08)
          (name "5VOUT" (effects (font (size 1.27 1.27))))
          (number "8" (effects (font (size 1.27 1.27))))
        )
        (pin bidirectional line (at -20.32 -10.16 0) (length 5.08)
          (name "MS1" (effects (font (size 1.27 1.27))))
          (number "9" (effects (font (size 1.27 1.27))))
        )
      )
      (symbol "TMC2208-LA_1_1"
        (rectangle (start -15.24 27.94) (end 15.24 -30.48)
          (stroke (width 0.1524)) (fill (type background))
        )
      )
    )
    (symbol "power:+5V" (power) (pin_names (offset 0)) (in_bom yes) (on_board yes)
      (property "Reference" "#PWR" (id 0) (at 0 -3.81 0)
        (effects (font (size 1.27 1.27)) hide)
      )
      (property "Value" "+5V" (id 1) (at 0 3.556 0)
        (effects (font (size 1.27 1.27)))
      )
      (property "Footprint" "" (id 2) (at 0 0 0)
        (effects (font (size 1.27 1.27)) hide)
      )
      (property "Datasheet" "" (id 3) (at 0 0 0)
        (effects (font (size 1.27 1.27)) hide)
      )
      (property "ki_keywords" "power-flag" (id 4) (at 0 0 0)
        (effects (font (size 1.27 1.27)) hide)
      )
      (property "ki_description" "Power symbol creates a global label with name \"+5V\"" (id 5) (at 0 0 0)
        (effects (font (size 1.27 1.27)) hide)
      )
      (symbol "+5V_0_1"
        (polyline
          (pts
            (xy -0.762 1.27)
            (xy 0 2.54)
          )
          (stroke (width 0)) (fill (type none))
        )
        (polyline
          (pts
            (xy 0 0)
            (xy 0 2.54)
          )
          (stroke (width 0)) (fill (type none))
        )
        (polyline
          (pts
            (xy 0 2.54)
            (xy 0.762 1.27)
          )
          (stroke (width 0)) (fill (type none))
        )
      )
      (symbol "+5V_1_1"
        (pin power_in line (at 0 0 90) (length 0) hide
          (name "+5V" (effects (font (size 1.27 1.27))))
          (number "1" (effects (font (size 1.27 1.27))))
        )
      )
    )
    (symbol "power:GND" (power) (pin_names (offset 0)) (in_bom yes) (on_board yes)
      (property "Reference" "#PWR" (id 0) (at 0 -6.35 0)
        (effects (font (size 1.27 1.27)) hide)
      )
      (property "Value" "GND" (id 1) (at 0 -3.81 0)
        (effects (font (size 1.27 1.27)))
      )
      (property "Footprint" "" (id 2) (at 0 0 0)
        (effects (font (size 1.27 1.27)) hide)
      )
      (property "Datasheet" "" (id 3) (at 0 0 0)
        (effects (font (size 1.27 1.27)) hide)
      )
      (property "ki_keywords" "power-flag" (id 4) (at 0 0 0)
        (effects (font (size 1.27 1.27)) hide)
      )
      (property "ki_description" "Power symbol creates a global label with name \"GND\" , ground" (id 5) (at 0 0 0)
        (effects (font (size 1.27 1.27)) hide)
      )
      (symbol "GND_0_1"
        (polyline
          (pts
            (xy 0 0)
            (xy 0 -1.27)
            (xy 1.27 -1.27)
            (xy 0 -2.54)
            (xy -1.27 -1.27)
            (xy 0 -1.27)
          )
          (stroke (width 0)) (fill (type none))
        )
      )
      (symbol "GND_1_1"
        (pin power_in line (at 0 0 270) (length 0) hide
          (name "GND" (effects (font (size 1.27 1.27))))
          (number "1" (effects (font (size 1.27 1.27))))
        )
      )
    )
    (symbol "power:PWR_FLAG" (power) (pin_numbers hide) (pin_names (offset 0) hide) (in_bom yes) (on_board yes)
      (property "Reference" "#FLG" (id 0) (at 0 1.905 0)
        (effects (font (size 1.27 1.27)) hide)
      )
      (property "Value" "PWR_FLAG" (id 1) (at 0 3.81 0)
        (effects (font (size 1.27 1.27)))
      )
      (property "Footprint" "" (id 2) (at 0 0 0)
        (effects (font (size 1.27 1.27)) hide)
      )
      (property "Datasheet" "~" (id 3) (at 0 0 0)
        (effects (font (size 1.27 1.27)) hide)
      )
      (property "ki_keywords" "power-flag" (id 4) (at 0 0 0)
        (effects (font (size 1.27 1.27)) hide)
      )
      (property "ki_description" "Special symbol for telling ERC where power comes from" (id 5) (at 0 0 0)
        (effects (font (size 1.27 1.27)) hide)
      )
      (symbol "PWR_FLAG_0_0"
        (pin power_out line (at 0 0 90) (length 0)
          (name "pwr" (effects (font (size 1.27 1.27))))
          (number "1" (effects (font (size 1.27 1.27))))
        )
      )
      (symbol "PWR_FLAG_0_1"
        (polyline
          (pts
            (xy 0 0)
            (xy 0 1.27)
            (xy -1.016 1.905)
            (xy 0 2.54)
            (xy 1.016 1.905)
            (xy 0 1.27)
          )
          (stroke (width 0)) (fill (type none))
        )
      )
    )
  )

  (junction (at 60.96 50.8) (diameter 0.9144) (color 0 0 0 0))
  (junction (at 73.66 60.96) (diameter 0.9144) (color 0 0 0 0))
  (junction (at 80.01 96.52) (diameter 0.9144) (color 0 0 0 0))
  (junction (at 85.09 50.8) (diameter 0.9144) (color 0 0 0 0))
  (junction (at 97.79 110.49) (diameter 0.9144) (color 0 0 0 0))
  (junction (at 102.87 104.14) (diameter 0.9144) (color 0 0 0 0))
  (junction (at 151.765 50.8) (diameter 0.9144) (color 0 0 0 0))
  (junction (at 163.83 50.8) (diameter 0.9144) (color 0 0 0 0))
  (junction (at 180.34 40.64) (diameter 0.9144) (color 0 0 0 0))
  (junction (at 180.34 48.26) (diameter 0.9144) (color 0 0 0 0))
  (junction (at 180.34 50.8) (diameter 0.9144) (color 0 0 0 0))
  (junction (at 224.79 74.93) (diameter 0.9144) (color 0 0 0 0))

  (no_connect (at 107.95 78.74) (uuid c42c62f8-8e26-4296-8a05-ba9e8808e281))
  (no_connect (at 107.95 81.28) (uuid c42c62f8-8e26-4296-8a05-ba9e8808e281))
  (no_connect (at 107.95 86.36) (uuid 3d367b35-448e-4ff4-801f-a0206d37cb85))
  (no_connect (at 107.95 88.9) (uuid 3d367b35-448e-4ff4-801f-a0206d37cb85))
  (no_connect (at 109.855 85.725) (uuid 3d367b35-448e-4ff4-801f-a0206d37cb85))
  (no_connect (at 219.71 48.26) (uuid d7fc428c-c5c6-4bcd-80ea-89fd7a7f637e))
  (no_connect (at 219.71 50.8) (uuid d7fc428c-c5c6-4bcd-80ea-89fd7a7f637e))
  (no_connect (at 219.71 53.34) (uuid 36f330d9-e70d-4bd5-9508-32c1524a2832))
  (no_connect (at 219.71 55.88) (uuid 36f330d9-e70d-4bd5-9508-32c1524a2832))
  (no_connect (at 219.71 58.42) (uuid e29af6c9-3943-47b8-af89-26ec96e0c38d))

  (wire (pts (xy 60.96 38.1) (xy 60.96 50.8))
    (stroke (width 0) (type solid) (color 0 0 0 0))
    (uuid bee823cd-c696-46bd-ba16-22170bbb350a)
  )
  (wire (pts (xy 60.96 50.8) (xy 60.96 52.705))
    (stroke (width 0) (type solid) (color 0 0 0 0))
    (uuid ed553694-2086-44a1-bc78-c6e52dc8e432)
  )
  (wire (pts (xy 60.96 57.785) (xy 60.96 66.04))
    (stroke (width 0) (type solid) (color 0 0 0 0))
    (uuid c36d41eb-2281-4eaa-a8df-b11bbde8756d)
  )
  (wire (pts (xy 73.66 35.56) (xy 73.66 55.88))
    (stroke (width 0) (type solid) (color 0 0 0 0))
    (uuid ace579af-dc56-4633-97da-d0260f62ccb1)
  )
  (wire (pts (xy 73.66 55.88) (xy 107.95 55.88))
    (stroke (width 0) (type solid) (color 0 0 0 0))
    (uuid 703418c0-b690-4349-9f6e-b7d31c5a8417)
  )
  (wire (pts (xy 73.66 60.96) (xy 73.66 66.04))
    (stroke (width 0) (type solid) (color 0 0 0 0))
    (uuid cf856d83-c05d-4f99-a727-1a97026b149a)
  )
  (wire (pts (xy 77.47 96.52) (xy 80.01 96.52))
    (stroke (width 0) (type solid) (color 0 0 0 0))
    (uuid 7cebea0a-89ec-4e31-b46e-37c290c6e74a)
  )
  (wire (pts (xy 77.47 110.49) (xy 85.09 110.49))
    (stroke (width 0) (type solid) (color 0 0 0 0))
    (uuid cf400760-7c99-4961-a06f-b81a0518f890)
  )
  (wire (pts (xy 80.01 93.98) (xy 80.01 96.52))
    (stroke (width 0) (type solid) (color 0 0 0 0))
    (uuid 1d5a80b4-1f47-4d5d-8ec2-0d6f8724b37e)
  )
  (wire (pts (xy 80.01 93.98) (xy 107.95 93.98))
    (stroke (width 0) (type solid) (color 0 0 0 0))
    (uuid 4be5413d-79ee-45e7-8ad2-62129f30b9ac)
  )
  (wire (pts (xy 80.01 96.52) (xy 80.01 99.06))
    (stroke (width 0) (type solid) (color 0 0 0 0))
    (uuid 1d5a80b4-1f47-4d5d-8ec2-0d6f8724b37e)
  )
  (wire (pts (xy 80.01 99.06) (xy 84.455 99.06))
    (stroke (width 0) (type solid) (color 0 0 0 0))
    (uuid 235f4852-a877-4342-9b75-deb069c6f6a9)
  )
  (wire (pts (xy 85.09 50.8) (xy 60.96 50.8))
    (stroke (width 0) (type solid) (color 0 0 0 0))
    (uuid 0f3f46db-a33b-431f-9fa2-af7eb91e86ec)
  )
  (wire (pts (xy 85.09 50.8) (xy 85.09 66.04))
    (stroke (width 0) (type solid) (color 0 0 0 0))
    (uuid 83cf56a5-22e2-4ebd-9c4f-93ed508f2ff4)
  )
  (wire (pts (xy 85.09 66.04) (xy 88.9 66.04))
    (stroke (width 0) (type solid) (color 0 0 0 0))
    (uuid a86a2742-dd62-43f4-9c62-2bb8e9c3e6b0)
  )
  (wire (pts (xy 92.075 99.06) (xy 107.95 99.06))
    (stroke (width 0) (type solid) (color 0 0 0 0))
    (uuid ba3e5152-9d91-4473-ae48-66260b0cb709)
  )
  (wire (pts (xy 92.71 110.49) (xy 97.79 110.49))
    (stroke (width 0) (type solid) (color 0 0 0 0))
    (uuid 08eee1c5-c8b8-4d0e-84d3-4ee7ad48a7f8)
  )
  (wire (pts (xy 96.52 66.04) (xy 107.95 66.04))
    (stroke (width 0) (type solid) (color 0 0 0 0))
    (uuid 6f06f38b-ef7c-46be-b1a7-9645fbaffb6f)
  )
  (wire (pts (xy 97.79 110.49) (xy 97.79 111.76))
    (stroke (width 0) (type solid) (color 0 0 0 0))
    (uuid b36778bc-9a28-4ca6-af2d-6cfad9d9106f)
  )
  (wire (pts (xy 97.79 110.49) (xy 102.87 110.49))
    (stroke (width 0) (type solid) (color 0 0 0 0))
    (uuid c11dfe46-db73-4a3f-9cef-2f52a3d0abfb)
  )
  (wire (pts (xy 97.79 119.38) (xy 97.79 123.19))
    (stroke (width 0) (type solid) (color 0 0 0 0))
    (uuid 04d9fb35-3cef-4d83-a20c-5ca6abb22ea3)
  )
  (wire (pts (xy 102.87 104.14) (xy 93.98 104.14))
    (stroke (width 0) (type solid) (color 0 0 0 0))
    (uuid b362bb1f-c1fe-4de7-a73e-7e1ee259b575)
  )
  (wire (pts (xy 102.87 110.49) (xy 102.87 104.14))
    (stroke (width 0) (type solid) (color 0 0 0 0))
    (uuid f140d9c8-0b4e-46de-869e-c39f24751a65)
  )
  (wire (pts (xy 107.95 50.8) (xy 85.09 50.8))
    (stroke (width 0) (type solid) (color 0 0 0 0))
    (uuid 584b313f-c020-4568-8333-31222445cb74)
  )
  (wire (pts (xy 107.95 60.96) (xy 73.66 60.96))
    (stroke (width 0) (type solid) (color 0 0 0 0))
    (uuid 5f20b605-0397-4313-afcd-d83a3802ba92)
  )
  (wire (pts (xy 107.95 71.12) (xy 99.06 71.12))
    (stroke (width 0) (type solid) (color 0 0 0 0))
    (uuid 2c6c808b-be6d-4f6b-a686-b5e2e783aa37)
  )
  (wire (pts (xy 107.95 73.66) (xy 99.06 73.66))
    (stroke (width 0) (type solid) (color 0 0 0 0))
    (uuid 53df9064-3e9d-4ab3-aa99-7b414e6ba062)
  )
  (wire (pts (xy 107.95 104.14) (xy 102.87 104.14))
    (stroke (width 0) (type solid) (color 0 0 0 0))
    (uuid 38e694f3-3b07-4abe-90e2-ac2faf7f5a7e)
  )
  (wire (pts (xy 148.59 50.8) (xy 151.765 50.8))
    (stroke (width 0) (type solid) (color 0 0 0 0))
    (uuid 034bd6de-c55e-40c5-b9d8-81d8b8aaa74a)
  )
  (wire (pts (xy 148.59 58.42) (xy 161.29 58.42))
    (stroke (width 0) (type solid) (color 0 0 0 0))
    (uuid 55fa8bd9-d603-418b-ad96-3edea8933d63)
  )
  (wire (pts (xy 148.59 63.5) (xy 153.67 63.5))
    (stroke (width 0) (type solid) (color 0 0 0 0))
    (uuid e4ffd767-a3b0-4755-b0af-6cfa9bbf9a22)
  )
  (wire (pts (xy 148.59 68.58) (xy 163.83 68.58))
    (stroke (width 0) (type solid) (color 0 0 0 0))
    (uuid cfeae3e3-53e2-470d-afc7-f50ae8b9fb06)
  )
  (wire (pts (xy 148.59 76.2) (xy 156.21 76.2))
    (stroke (width 0) (type solid) (color 0 0 0 0))
    (uuid 07434a3f-b1e5-4319-bb6a-50ff81c40bcf)
  )
  (wire (pts (xy 148.59 81.28) (xy 156.21 81.28))
    (stroke (width 0) (type solid) (color 0 0 0 0))
    (uuid 2d77fa20-f665-4e23-9aff-6f505a55b0a3)
  )
  (wire (pts (xy 148.59 86.36) (xy 156.21 86.36))
    (stroke (width 0) (type solid) (color 0 0 0 0))
    (uuid 633b9f7c-8a35-4f23-a32d-729cab9724bd)
  )
  (wire (pts (xy 148.59 91.44) (xy 156.21 91.44))
    (stroke (width 0) (type solid) (color 0 0 0 0))
    (uuid 8f81a29f-03ed-4d62-a683-44187e48fe21)
  )
  (wire (pts (xy 148.59 99.06) (xy 163.83 99.06))
    (stroke (width 0) (type solid) (color 0 0 0 0))
    (uuid 8eba8779-af07-49f8-b137-5d0544898570)
  )
  (wire (pts (xy 148.59 104.14) (xy 154.94 104.14))
    (stroke (width 0) (type solid) (color 0 0 0 0))
    (uuid f6e50cc5-566d-4938-abb5-9917051a632f)
  )
  (wire (pts (xy 151.765 35.56) (xy 151.765 41.91))
    (stroke (width 0) (type solid) (color 0 0 0 0))
    (uuid a1b42c80-dbd0-4919-b71f-50d2d0311c01)
  )
  (wire (pts (xy 151.765 50.8) (xy 151.765 46.99))
    (stroke (width 0) (type solid) (color 0 0 0 0))
    (uuid ad460514-14fa-467f-b4d2-2b6b1987db8e)
  )
  (wire (pts (xy 151.765 50.8) (xy 163.83 50.8))
    (stroke (width 0) (type solid) (color 0 0 0 0))
    (uuid e130a5e9-7dc6-408d-9341-04c2ee7b807d)
  )
  (wire (pts (xy 154.94 104.14) (xy 154.94 107.95))
    (stroke (width 0) (type solid) (color 0 0 0 0))
    (uuid 32700ebc-ddad-4681-b1e2-77b06b0bc9a4)
  )
  (wire (pts (xy 154.94 115.57) (xy 154.94 125.73))
    (stroke (width 0) (type solid) (color 0 0 0 0))
    (uuid bb56592d-0104-42bc-87b1-f6c2fb167e64)
  )
  (wire (pts (xy 163.83 35.56) (xy 163.83 36.195))
    (stroke (width 0) (type solid) (color 0 0 0 0))
    (uuid 10be8028-8cd2-449e-99e6-7ecf0380e1ab)
  )
  (wire (pts (xy 163.83 41.275) (xy 163.83 50.8))
    (stroke (width 0) (type solid) (color 0 0 0 0))
    (uuid 8efaf798-bdb5-4e98-8785-f124e6d22aab)
  )
  (wire (pts (xy 163.83 50.8) (xy 180.34 50.8))
    (stroke (width 0) (type solid) (color 0 0 0 0))
    (uuid b85fec1f-c082-4bc4-82ef-e8f1b75721f6)
  )
  (wire (pts (xy 163.83 63.5) (xy 158.75 63.5))
    (stroke (width 0) (type solid) (color 0 0 0 0))
    (uuid 863db990-81d3-4036-a3d3-e4bb39a5b386)
  )
  (wire (pts (xy 163.83 68.58) (xy 163.83 63.5))
    (stroke (width 0) (type solid) (color 0 0 0 0))
    (uuid 0e7a73b8-1a12-4a14-bb7d-92f7b8d3f29b)
  )
  (wire (pts (xy 163.83 99.06) (xy 163.83 107.95))
    (stroke (width 0) (type solid) (color 0 0 0 0))
    (uuid 98b39272-771f-4f66-b30d-382a2e58473e)
  )
  (wire (pts (xy 163.83 115.57) (xy 163.83 125.73))
    (stroke (width 0) (type solid) (color 0 0 0 0))
    (uuid f049866f-7c1b-476a-ae50-8d89c27f2d58)
  )
  (wire (pts (xy 166.37 58.42) (xy 179.07 58.42))
    (stroke (width 0) (type solid) (color 0 0 0 0))
    (uuid 192d8766-359d-4472-998a-1f4296c3d727)
  )
  (wire (pts (xy 180.34 35.56) (xy 180.34 40.64))
    (stroke (width 0) (type solid) (color 0 0 0 0))
    (uuid 6ece8c88-fb29-4fbf-b483-977b790f36f2)
  )
  (wire (pts (xy 180.34 40.64) (xy 175.26 40.64))
    (stroke (width 0) (type solid) (color 0 0 0 0))
    (uuid 445c6e19-f5c6-43a0-a876-a2558a76d6d3)
  )
  (wire (pts (xy 180.34 48.26) (xy 175.26 48.26))
    (stroke (width 0) (type solid) (color 0 0 0 0))
    (uuid 4a1d11cf-073c-4fd0-9c2e-3ccb02f33d51)
  )
  (wire (pts (xy 180.34 48.26) (xy 180.34 50.8))
    (stroke (width 0) (type solid) (color 0 0 0 0))
    (uuid 23b10790-15c5-453b-938e-2c3fcaa48491)
  )
  (wire (pts (xy 180.34 50.8) (xy 186.69 50.8))
    (stroke (width 0) (type solid) (color 0 0 0 0))
    (uuid 331dceb4-3575-447b-86a8-5f50d19743f4)
  )
  (wire (pts (xy 185.42 40.64) (xy 180.34 40.64))
    (stroke (width 0) (type solid) (color 0 0 0 0))
    (uuid 5da635f8-8dae-4586-8d9d-000fafd744ea)
  )
  (wire (pts (xy 185.42 48.26) (xy 180.34 48.26))
    (stroke (width 0) (type solid) (color 0 0 0 0))
    (uuid 1a26eaa4-af25-49ec-b348-53bd25f743c3)
  )
  (wire (pts (xy 219.71 45.72) (xy 224.79 45.72))
    (stroke (width 0) (type solid) (color 0 0 0 0))
    (uuid 14fa3cac-ab04-4f59-baf1-6ce8b696bdbb)
  )
  (wire (pts (xy 219.71 60.96) (xy 224.79 60.96))
    (stroke (width 0) (type solid) (color 0 0 0 0))
    (uuid 24aa5017-7784-43dd-abb7-96037544bbd5)
  )
  (wire (pts (xy 219.71 63.5) (xy 224.79 63.5))
    (stroke (width 0) (type solid) (color 0 0 0 0))
    (uuid f7319dcf-cc2a-4b4f-9deb-75a1961c8c3c)
  )
  (wire (pts (xy 219.71 74.93) (xy 224.79 74.93))
    (stroke (width 0) (type solid) (color 0 0 0 0))
    (uuid e96e1b3d-6562-45f4-95ef-6e9b1fcf0085)
  )
  (wire (pts (xy 219.71 77.47) (xy 233.68 77.47))
    (stroke (width 0) (type solid) (color 0 0 0 0))
    (uuid 307790a5-4cab-4ddb-80b1-ac703f5aa02b)
  )
  (wire (pts (xy 219.71 80.01) (xy 224.79 80.01))
    (stroke (width 0) (type solid) (color 0 0 0 0))
    (uuid 729ec283-7e80-4d56-9189-dff97ab95c04)
  )
  (wire (pts (xy 219.71 82.55) (xy 224.79 82.55))
    (stroke (width 0) (type solid) (color 0 0 0 0))
    (uuid 83463389-3d59-4b6e-93e6-4598921e4a07)
  )
  (wire (pts (xy 219.71 85.09) (xy 224.79 85.09))
    (stroke (width 0) (type solid) (color 0 0 0 0))
    (uuid 18a909dc-fe92-47a6-9ab0-19b125fe6c68)
  )
  (wire (pts (xy 219.71 87.63) (xy 224.79 87.63))
    (stroke (width 0) (type solid) (color 0 0 0 0))
    (uuid fb78ad51-e56f-4a2b-9c7d-d612043c2461)
  )
  (wire (pts (xy 219.71 90.17) (xy 233.68 90.17))
    (stroke (width 0) (type solid) (color 0 0 0 0))
    (uuid 8fefc422-ac28-432f-903c-8a21cf77f964)
  )
  (wire (pts (xy 219.71 92.71) (xy 233.68 92.71))
    (stroke (width 0) (type solid) (color 0 0 0 0))
    (uuid 528e57cf-7bd6-40b0-86ed-886dc92479d7)
  )
  (wire (pts (xy 219.71 101.6) (xy 224.79 101.6))
    (stroke (width 0) (type solid) (color 0 0 0 0))
    (uuid 9766fabf-69db-461e-923d-3231916578c3)
  )
  (wire (pts (xy 219.71 104.14) (xy 233.68 104.14))
    (stroke (width 0) (type solid) (color 0 0 0 0))
    (uuid acae249f-5bf0-4928-9857-1233beeb3bc3)
  )
  (wire (pts (xy 224.79 74.93) (xy 233.68 74.93))
    (stroke (width 0) (type solid) (color 0 0 0 0))
    (uuid e96e1b3d-6562-45f4-95ef-6e9b1fcf0085)
  )

  (label "VIO" (at 60.96 38.1 90)
    (effects (font (size 1.0795 1.0795)) (justify left bottom))
    (uuid 04d9ff57-0d07-430b-a4d2-f5027132f8cf)
  )
  (label "VREF" (at 93.98 104.14 0)
    (effects (font (size 1.0795 1.0795)) (justify left bottom))
    (uuid d6a67c6a-0c53-4bca-8c28-85e7500ce9e6)
  )
  (label "EN" (at 99.06 66.04 0)
    (effects (font (size 1.0795 1.0795)) (justify left bottom))
    (uuid db0b084f-b3d8-49d4-9cb6-550016cbbd1f)
  )
  (label "STEP" (at 99.06 71.12 0)
    (effects (font (size 1.0795 1.0795)) (justify left bottom))
    (uuid 7068c4f3-1e90-4372-9c2c-e5319e5585bc)
  )
  (label "DIR" (at 99.06 73.66 0)
    (effects (font (size 1.0795 1.0795)) (justify left bottom))
    (uuid 33e2cd24-241f-4592-8749-71a9bd1a31b7)
  )
  (label "PDN_UART" (at 99.06 99.06 0)
    (effects (font (size 1.0795 1.0795)) (justify left bottom))
    (uuid ad56365a-2fd2-475b-84ac-5941d0431eeb)
  )
  (label "VCP" (at 148.59 58.42 0)
    (effects (font (size 1.27 1.27)) (justify left bottom))
    (uuid 511c316e-7174-4e91-bb12-3f74d7ccc0e3)
  )
  (label "CPI" (at 148.59 63.5 0)
    (effects (font (size 1.27 1.27)) (justify left bottom))
    (uuid 640a93cc-d43f-465b-9012-26ce1d954e72)
  )
  (label "CPO" (at 148.59 68.58 0)
    (effects (font (size 1.27 1.27)) (justify left bottom))
    (uuid b2c0b64c-493a-4119-af66-813a377d273e)
  )
  (label "BRA" (at 148.59 99.06 0)
    (effects (font (size 1.27 1.27)) (justify left bottom))
    (uuid efecee53-ffe2-47dd-8b4a-2518abeddf2d)
  )
  (label "BRB" (at 148.59 104.14 0)
    (effects (font (size 1.27 1.27)) (justify left bottom))
    (uuid 5ec84058-6ada-48cc-87f6-1bd161eef95e)
  )
  (label "OA1" (at 156.21 76.2 0)
    (effects (font (size 1.0795 1.0795)) (justify left bottom))
    (uuid ecf62019-77d8-43d3-a392-9faa6216714b)
  )
  (label "OA2" (at 156.21 81.28 0)
    (effects (font (size 1.0795 1.0795)) (justify left bottom))
    (uuid 585c8ef4-a603-43d6-bc0a-408c80237ab8)
  )
  (label "OB1" (at 156.21 86.36 0)
    (effects (font (size 1.0795 1.0795)) (justify left bottom))
    (uuid 10fa925f-2a71-4efc-85eb-b1ead4f6ebf0)
  )
  (label "OB2" (at 156.21 91.44 0)
    (effects (font (size 1.0795 1.0795)) (justify left bottom))
    (uuid c167400f-0864-47de-9af0-87efd3671625)
  )
  (label "VM" (at 179.07 58.42 0)
    (effects (font (size 1.0795 1.0795)) (justify left bottom))
    (uuid 369e87a3-8241-405a-b70a-0d9bddc30d0f)
  )
  (label "VM" (at 186.69 50.8 0)
    (effects (font (size 1.0795 1.0795)) (justify left bottom))
    (uuid fbf92965-7baf-40aa-b80a-8e0911d5ec67)
  )
  (label "EN" (at 224.79 45.72 0)
    (effects (font (size 1.0795 1.0795)) (justify left bottom))
    (uuid 79a8ad07-173c-4463-af56-4c81ae260790)
  )
  (label "STEP" (at 224.79 60.96 0)
    (effects (font (size 1.0795 1.0795)) (justify left bottom))
    (uuid b142db67-1df7-40b4-8f37-34a5663444e1)
  )
  (label "DIR" (at 224.79 63.5 0)
    (effects (font (size 1.0795 1.0795)) (justify left bottom))
    (uuid 98cbb115-3b8d-4df0-aeb4-99798fd3d3cc)
  )
  (label "VIO" (at 224.79 77.47 0)
    (effects (font (size 1.0795 1.0795)) (justify left bottom))
    (uuid 7f2ee440-1837-4581-970e-720fca98ca23)
  )
  (label "OB2" (at 224.79 80.01 0)
    (effects (font (size 1.0795 1.0795)) (justify left bottom))
    (uuid 91206d3c-40d0-4130-a12e-8267ce7ba2ad)
  )
  (label "OB1" (at 224.79 82.55 0)
    (effects (font (size 1.0795 1.0795)) (justify left bottom))
    (uuid 6e1aad40-f6c5-47d0-8425-f2cfce446ae1)
  )
  (label "OA1" (at 224.79 85.09 0)
    (effects (font (size 1.0795 1.0795)) (justify left bottom))
    (uuid d654fdd9-c2be-4d63-a3cd-2b276d34ec96)
  )
  (label "OA2" (at 224.79 87.63 0)
    (effects (font (size 1.0795 1.0795)) (justify left bottom))
    (uuid ab610904-0f60-4c26-8635-e98eff9343f3)
  )
  (label "VM" (at 224.79 92.71 0)
    (effects (font (size 1.0795 1.0795)) (justify left bottom))
    (uuid 99214f22-d0ae-4412-b2ad-0d97480dc733)
  )
  (label "PDN_UART" (at 224.79 101.6 0)
    (effects (font (size 1.0795 1.0795)) (justify left bottom))
    (uuid dfacf58e-aaa9-44d6-825e-24a34a0ad6ca)
  )

  (symbol (lib_id "power:+5V") (at 73.66 35.56 0) (unit 1)
    (in_bom yes) (on_board yes)
    (uuid f149d5ea-5e82-4c09-8218-2ee8146221b9)
    (property "Reference" "#P+01" (id 0) (at 73.66 35.56 0)
      (effects (font (size 1.27 1.27)) hide)
    )
    (property "Value" "+5V" (id 1) (at 73.66 32.385 0)
      (effects (font (size 1.5113 1.5113)) (justify bottom))
    )
    (property "Footprint" "" (id 2) (at 73.66 35.56 0)
      (effects (font (size 1.27 1.27)) hide)
    )
    (property "Datasheet" "" (id 3) (at 73.66 35.56 0)
      (effects (font (size 1.27 1.27)) hide)
    )
    (pin "1" (uuid c9028234-0cb1-4f32-aa7d-d490bd4f1c31))
  )

  (symbol (lib_id "power:+5V") (at 77.47 110.49 90) (unit 1)
    (in_bom yes) (on_board yes)
    (uuid 7cb95c5d-884b-4a30-9b15-61e523bec0fe)
    (property "Reference" "#P+02" (id 0) (at 77.47 110.49 0)
      (effects (font (size 1.27 1.27)) hide)
    )
    (property "Value" "+5V" (id 1) (at 70.485 110.49 90)
      (effects (font (size 1.27 1.27)) (justify right))
    )
    (property "Footprint" "" (id 2) (at 77.47 110.49 0)
      (effects (font (size 1.27 1.27)) hide)
    )
    (property "Datasheet" "" (id 3) (at 77.47 110.49 0)
      (effects (font (size 1.27 1.27)) hide)
    )
    (pin "1" (uuid a2d9dd74-925d-4ec4-80d4-fcfca34ff22c))
  )

  (symbol (lib_id "power:PWR_FLAG") (at 224.79 74.93 0) (unit 1)
    (in_bom yes) (on_board yes)
    (uuid 5745e341-69d1-4518-bbaf-c1d94a78df06)
    (property "Reference" "#FLG01" (id 0) (at 224.79 73.025 0)
      (effects (font (size 1.27 1.27)) hide)
    )
    (property "Value" "PWR_FLAG" (id 1) (at 226.06 71.9454 0)
      (effects (font (size 1.27 1.27)) (justify left))
    )
    (property "Footprint" "" (id 2) (at 224.79 74.93 0)
      (effects (font (size 1.27 1.27)) hide)
    )
    (property "Datasheet" "~" (id 3) (at 224.79 74.93 0)
      (effects (font (size 1.27 1.27)) hide)
    )
    (pin "1" (uuid bce7041d-a43e-4471-81d1-6f35e5ce2f3c))
  )

  (symbol (lib_id "power:PWR_FLAG") (at 233.68 77.47 270) (unit 1)
    (in_bom yes) (on_board yes) (fields_autoplaced)
    (uuid 4a244021-7ef9-45eb-b3a5-849308716ac4)
    (property "Reference" "#FLG02" (id 0) (at 235.585 77.47 0)
      (effects (font (size 1.27 1.27)) hide)
    )
    (property "Value" "PWR_FLAG" (id 1) (at 237.49 77.4699 90)
      (effects (font (size 1.27 1.27)) (justify left))
    )
    (property "Footprint" "" (id 2) (at 233.68 77.47 0)
      (effects (font (size 1.27 1.27)) hide)
    )
    (property "Datasheet" "~" (id 3) (at 233.68 77.47 0)
      (effects (font (size 1.27 1.27)) hide)
    )
    (pin "1" (uuid 95beb83c-9507-4692-84b5-074c54b3010a))
  )

  (symbol (lib_id "power:PWR_FLAG") (at 233.68 92.71 270) (unit 1)
    (in_bom yes) (on_board yes) (fields_autoplaced)
    (uuid 4f8ee8da-3a3b-41d3-b28d-5d0b4985f5a4)
    (property "Reference" "#FLG03" (id 0) (at 235.585 92.71 0)
      (effects (font (size 1.27 1.27)) hide)
    )
    (property "Value" "PWR_FLAG" (id 1) (at 237.49 92.7099 90)
      (effects (font (size 1.27 1.27)) (justify left))
    )
    (property "Footprint" "" (id 2) (at 233.68 92.71 0)
      (effects (font (size 1.27 1.27)) hide)
    )
    (property "Datasheet" "~" (id 3) (at 233.68 92.71 0)
      (effects (font (size 1.27 1.27)) hide)
    )
    (pin "1" (uuid f18fb5af-7fef-4a33-b12a-667b493d913a))
  )

  (symbol (lib_id "power:GND") (at 60.96 66.04 0) (unit 1)
    (in_bom yes) (on_board yes)
    (uuid fe8f4955-2d70-4602-95fe-04541038195c)
    (property "Reference" "#GND04" (id 0) (at 60.96 66.04 0)
      (effects (font (size 1.27 1.27)) hide)
    )
    (property "Value" "GND" (id 1) (at 60.96 71.12 0)
      (effects (font (size 1.27 1.27)) (justify bottom))
    )
    (property "Footprint" "" (id 2) (at 60.96 66.04 0)
      (effects (font (size 1.27 1.27)) hide)
    )
    (property "Datasheet" "" (id 3) (at 60.96 66.04 0)
      (effects (font (size 1.27 1.27)) hide)
    )
    (pin "1" (uuid ab50ea66-b438-40a3-916c-1891b141193e))
  )

  (symbol (lib_id "power:GND") (at 73.66 66.04 0) (unit 1)
    (in_bom yes) (on_board yes)
    (uuid b3eae234-48f0-4573-9f81-20cfc7f104ad)
    (property "Reference" "#GND05" (id 0) (at 73.66 66.04 0)
      (effects (font (size 1.27 1.27)) hide)
    )
    (property "Value" "GND" (id 1) (at 73.66 71.12 0)
      (effects (font (size 1.27 1.27)) (justify bottom))
    )
    (property "Footprint" "" (id 2) (at 73.66 66.04 0)
      (effects (font (size 1.27 1.27)) hide)
    )
    (property "Datasheet" "" (id 3) (at 73.66 66.04 0)
      (effects (font (size 1.27 1.27)) hide)
    )
    (pin "1" (uuid e87f26f0-8c41-43c1-bead-d0e56bd9c5e5))
  )

  (symbol (lib_id "power:GND") (at 77.47 96.52 270) (unit 1)
    (in_bom yes) (on_board yes)
    (uuid ce190095-6e4b-4833-afdf-af104c513610)
    (property "Reference" "#GND08" (id 0) (at 77.47 96.52 0)
      (effects (font (size 1.27 1.27)) hide)
    )
    (property "Value" "GND" (id 1) (at 70.485 96.52 90)
      (effects (font (size 1.27 1.27)) (justify left))
    )
    (property "Footprint" "" (id 2) (at 77.47 96.52 0)
      (effects (font (size 1.27 1.27)) hide)
    )
    (property "Datasheet" "" (id 3) (at 77.47 96.52 0)
      (effects (font (size 1.27 1.27)) hide)
    )
    (pin "1" (uuid 1d200b6d-c380-457c-9b89-8350eb4a0431))
  )

  (symbol (lib_id "power:GND") (at 97.79 123.19 0) (unit 1)
    (in_bom yes) (on_board yes)
    (uuid 624fe066-4ac1-4c08-9297-fa94eb13e819)
    (property "Reference" "#GND010" (id 0) (at 97.79 123.19 0)
      (effects (font (size 1.27 1.27)) hide)
    )
    (property "Value" "GND" (id 1) (at 95.25 128.905 0)
      (effects (font (size 1.778 1.5113)) (justify left bottom))
    )
    (property "Footprint" "" (id 2) (at 97.79 123.19 0)
      (effects (font (size 1.27 1.27)) hide)
    )
    (property "Datasheet" "" (id 3) (at 97.79 123.19 0)
      (effects (font (size 1.27 1.27)) hide)
    )
    (pin "1" (uuid 5d7069f7-4d8d-4413-a79a-6b8955d32e95))
  )

  (symbol (lib_id "power:GND") (at 151.765 35.56 180) (unit 1)
    (in_bom yes) (on_board yes)
    (uuid 24a17a2a-069a-4a02-954d-c8ca8379ad22)
    (property "Reference" "#GND01" (id 0) (at 151.765 35.56 0)
      (effects (font (size 1.27 1.27)) hide)
    )
    (property "Value" "GND" (id 1) (at 151.765 30.48 0)
      (effects (font (size 1.27 1.27)) (justify bottom))
    )
    (property "Footprint" "" (id 2) (at 151.765 35.56 0)
      (effects (font (size 1.27 1.27)) hide)
    )
    (property "Datasheet" "" (id 3) (at 151.765 35.56 0)
      (effects (font (size 1.27 1.27)) hide)
    )
    (pin "1" (uuid eef9106c-3258-4d6a-8594-29ec8fd5972b))
  )

  (symbol (lib_id "power:GND") (at 154.94 125.73 0) (unit 1)
    (in_bom yes) (on_board yes)
    (uuid e26e4349-ff47-4d36-8028-6c22e6f5218c)
    (property "Reference" "#GND011" (id 0) (at 154.94 125.73 0)
      (effects (font (size 1.27 1.27)) hide)
    )
    (property "Value" "GND" (id 1) (at 154.94 130.81 0)
      (effects (font (size 1.27 1.27)) (justify bottom))
    )
    (property "Footprint" "" (id 2) (at 154.94 125.73 0)
      (effects (font (size 1.27 1.27)) hide)
    )
    (property "Datasheet" "" (id 3) (at 154.94 125.73 0)
      (effects (font (size 1.27 1.27)) hide)
    )
    (pin "1" (uuid 72751f6a-54b8-46a0-8926-ffae153bf794))
  )

  (symbol (lib_id "power:GND") (at 163.83 35.56 180) (unit 1)
    (in_bom yes) (on_board yes)
    (uuid 8302aa25-cd98-4d4f-a810-ae13831d9dae)
    (property "Reference" "#GND02" (id 0) (at 163.83 35.56 0)
      (effects (font (size 1.27 1.27)) hide)
    )
    (property "Value" "GND" (id 1) (at 163.83 30.48 0)
      (effects (font (size 1.27 1.27)) (justify bottom))
    )
    (property "Footprint" "" (id 2) (at 163.83 35.56 0)
      (effects (font (size 1.27 1.27)) hide)
    )
    (property "Datasheet" "" (id 3) (at 163.83 35.56 0)
      (effects (font (size 1.27 1.27)) hide)
    )
    (pin "1" (uuid 6fa2f2fb-2b2e-4526-bf09-eb21b64847f0))
  )

  (symbol (lib_id "power:GND") (at 163.83 125.73 0) (unit 1)
    (in_bom yes) (on_board yes)
    (uuid 9d578339-f697-4720-bf22-02bc8c24a791)
    (property "Reference" "#GND012" (id 0) (at 163.83 125.73 0)
      (effects (font (size 1.27 1.27)) hide)
    )
    (property "Value" "GND" (id 1) (at 163.83 130.81 0)
      (effects (font (size 1.27 1.27)) (justify bottom))
    )
    (property "Footprint" "" (id 2) (at 163.83 125.73 0)
      (effects (font (size 1.27 1.27)) hide)
    )
    (property "Datasheet" "" (id 3) (at 163.83 125.73 0)
      (effects (font (size 1.27 1.27)) hide)
    )
    (pin "1" (uuid cd991856-319f-4129-a158-d10609d9dc2a))
  )

  (symbol (lib_id "power:GND") (at 180.34 35.56 180) (unit 1)
    (in_bom yes) (on_board yes)
    (uuid b5bf3211-01cc-4d76-822e-19ca819b8594)
    (property "Reference" "#GND03" (id 0) (at 180.34 35.56 0)
      (effects (font (size 1.27 1.27)) hide)
    )
    (property "Value" "GND" (id 1) (at 180.34 30.48 0)
      (effects (font (size 1.27 1.27)) (justify bottom))
    )
    (property "Footprint" "" (id 2) (at 180.34 35.56 0)
      (effects (font (size 1.27 1.27)) hide)
    )
    (property "Datasheet" "" (id 3) (at 180.34 35.56 0)
      (effects (font (size 1.27 1.27)) hide)
    )
    (pin "1" (uuid 02aabf8f-31f7-4013-8e0f-62bf1f7861c4))
  )

  (symbol (lib_id "power:GND") (at 233.68 74.93 90) (unit 1)
    (in_bom yes) (on_board yes)
    (uuid 522d7b79-2b60-46fb-a295-34da6087baa9)
    (property "Reference" "#GND06" (id 0) (at 233.68 74.93 0)
      (effects (font (size 1.27 1.27)) hide)
    )
    (property "Value" "GND" (id 1) (at 240.665 74.93 90)
      (effects (font (size 1.27 1.27)) (justify left))
    )
    (property "Footprint" "" (id 2) (at 233.68 74.93 0)
      (effects (font (size 1.27 1.27)) hide)
    )
    (property "Datasheet" "" (id 3) (at 233.68 74.93 0)
      (effects (font (size 1.27 1.27)) hide)
    )
    (pin "1" (uuid 320f0bfe-45e2-4155-a9ee-df4fd5b55dac))
  )

  (symbol (lib_id "power:GND") (at 233.68 90.17 90) (unit 1)
    (in_bom yes) (on_board yes)
    (uuid c9b94cba-daa1-4bf4-a6a1-be5ba815a8ab)
    (property "Reference" "#GND07" (id 0) (at 233.68 90.17 0)
      (effects (font (size 1.27 1.27)) hide)
    )
    (property "Value" "GND" (id 1) (at 240.665 90.17 90)
      (effects (font (size 1.27 1.27)) (justify left))
    )
    (property "Footprint" "" (id 2) (at 233.68 90.17 0)
      (effects (font (size 1.27 1.27)) hide)
    )
    (property "Datasheet" "" (id 3) (at 233.68 90.17 0)
      (effects (font (size 1.27 1.27)) hide)
    )
    (pin "1" (uuid bfd87d45-d790-42b0-814c-ccc50c17b164))
  )

  (symbol (lib_id "power:GND") (at 233.68 104.14 90) (unit 1)
    (in_bom yes) (on_board yes)
    (uuid cc0ab97e-3317-418e-96d7-37efd76a02e3)
    (property "Reference" "#GND09" (id 0) (at 233.68 104.14 0)
      (effects (font (size 1.27 1.27)) hide)
    )
    (property "Value" "GND" (id 1) (at 240.665 104.14 90)
      (effects (font (size 1.27 1.27)) (justify left))
    )
    (property "Footprint" "" (id 2) (at 233.68 104.14 0)
      (effects (font (size 1.27 1.27)) hide)
    )
    (property "Datasheet" "" (id 3) (at 233.68 104.14 0)
      (effects (font (size 1.27 1.27)) hide)
    )
    (pin "1" (uuid 37c1945f-4013-4a64-9b34-714f5010fcbf))
  )

  (symbol (lib_id "Connector:Conn_01x02_Male") (at 214.63 101.6 0) (unit 1)
    (in_bom yes) (on_board yes)
    (uuid e7468cbd-e7db-460f-bd36-398adad3fef6)
    (property "Reference" "J3" (id 0) (at 214.7824 99.695 0))
    (property "Value" "Conn_01x02_Male" (id 1) (at 214.7824 106.68 0))
    (property "Footprint" "Connector_PinHeader_2.54mm:PinHeader_1x02_P2.54mm_Horizontal" (id 2) (at 214.63 101.6 0)
      (effects (font (size 1.27 1.27)) hide)
    )
    (property "Datasheet" "~" (id 3) (at 214.63 101.6 0)
      (effects (font (size 1.27 1.27)) hide)
    )
    (property "JLCPCB_IGNORE" "1" (id 4) (at 214.63 101.6 0)
      (effects (font (size 1.27 1.27)) hide)
    )
    (pin "1" (uuid d5f405fb-d1e5-4781-ba5b-f745ad10a32c))
    (pin "2" (uuid a5a64296-a4ee-4e2b-ac62-4c3773f379ae))
  )

  (symbol (lib_id "Device:R") (at 88.265 99.06 90) (unit 1)
    (in_bom yes) (on_board yes)
    (uuid 1b07261a-d910-4e41-8a66-f7dbbaa4b182)
    (property "Reference" "R2" (id 0) (at 88.265 95.885 90)
      (effects (font (size 1.27 1.27)) (justify bottom))
    )
    (property "Value" "20k" (id 1) (at 88.265 102.235 90)
      (effects (font (size 1.27 1.27)) (justify top))
    )
    (property "Footprint" "Resistor_SMD:R_0402_1005Metric" (id 2) (at 88.265 99.06 0)
      (effects (font (size 1.27 1.27)) hide)
    )
    (property "Datasheet" "" (id 3) (at 88.265 99.06 0)
      (effects (font (size 1.27 1.27)) hide)
    )
    (property "LCSC" "C25765" (id 4) (at 88.265 99.06 0)
      (effects (font (size 1.27 1.27)) hide)
    )
    (pin "1" (uuid aed7a238-33a4-410b-b0f4-16484dabd5fe))
    (pin "2" (uuid 22f1b24b-1aeb-4c9d-91fb-cd43a5b8a9de))
  )

  (symbol (lib_id "Device:R") (at 88.9 110.49 270) (unit 1)
    (in_bom yes) (on_board yes)
    (uuid b7ef10cb-613d-424a-8492-34f348135486)
    (property "Reference" "R3" (id 0) (at 88.9 109.22 90)
      (effects (font (size 1.27 1.27)) (justify bottom))
    )
    (property "Value" "20k" (id 1) (at 88.9 111.76 90)
      (effects (font (size 1.27 1.27)) (justify top))
    )
    (property "Footprint" "Resistor_SMD:R_0603_1608Metric" (id 2) (at 88.9 110.49 0)
      (effects (font (size 1.27 1.27)) hide)
    )
    (property "Datasheet" "" (id 3) (at 88.9 110.49 0)
      (effects (font (size 1.27 1.27)) hide)
    )
    (property "LCSC" "C4184" (id 4) (at 88.9 110.49 0)
      (effects (font (size 1.27 1.27)) hide)
    )
    (pin "1" (uuid 83a3896d-89b3-41be-86fa-000765773a89))
    (pin "2" (uuid 281f2dcc-2356-4b75-a368-3378a1967ca5))
  )

  (symbol (lib_id "Device:R") (at 92.71 66.04 90) (unit 1)
    (in_bom yes) (on_board yes)
    (uuid 7f9f58ca-9e7b-4aba-b3f2-71f9a2562507)
    (property "Reference" "R1" (id 0) (at 92.71 62.865 90)
      (effects (font (size 1.27 1.27)) (justify bottom))
    )
    (property "Value" "20k" (id 1) (at 92.71 69.215 90)
      (effects (font (size 1.27 1.27)) (justify top))
    )
    (property "Footprint" "Resistor_SMD:R_0402_1005Metric" (id 2) (at 92.71 66.04 0)
      (effects (font (size 1.27 1.27)) hide)
    )
    (property "Datasheet" "" (id 3) (at 92.71 66.04 0)
      (effects (font (size 1.27 1.27)) hide)
    )
    (property "LCSC" "C25765" (id 4) (at 92.71 66.04 0)
      (effects (font (size 1.27 1.27)) hide)
    )
    (pin "1" (uuid 8b7d761e-ac9b-4d01-9329-0393500dd41a))
    (pin "2" (uuid cd1bdc09-a24a-4b32-a0e7-391695b2f8e1))
  )

  (symbol (lib_id "Device:R") (at 97.79 115.57 0) (unit 1)
    (in_bom yes) (on_board yes) (fields_autoplaced)
    (uuid 5817b381-279a-42c5-ae10-a7fae2a02210)
    (property "Reference" "R6" (id 0) (at 100.33 114.2999 0)
      (effects (font (size 1.27 1.27)) (justify left))
    )
    (property "Value" "13k" (id 1) (at 100.33 116.8399 0)
      (effects (font (size 1.27 1.27)) (justify left))
    )
    (property "Footprint" "Resistor_SMD:R_0603_1608Metric" (id 2) (at 96.012 115.57 90)
      (effects (font (size 1.27 1.27)) hide)
    )
    (property "Datasheet" "~" (id 3) (at 97.79 115.57 0)
      (effects (font (size 1.27 1.27)) hide)
    )
    (property "LCSC" "C22797" (id 4) (at 97.79 115.57 0)
      (effects (font (size 1.27 1.27)) hide)
    )
    (pin "1" (uuid 75b4d948-7a7b-43f5-aa34-f4d0c8bf54d8))
    (pin "2" (uuid 9e1dd107-abc1-489d-b5e7-e740c7450e9f))
  )

  (symbol (lib_id "Device:R") (at 154.94 111.76 180) (unit 1)
    (in_bom yes) (on_board yes)
    (uuid f907ba98-d9ee-4209-8de9-9ddaa0322604)
    (property "Reference" "R4" (id 0) (at 153.67 110.7186 0)
      (effects (font (size 1.27 1.27)) (justify left))
    )
    (property "Value" "100m" (id 1) (at 153.67 112.903 0)
      (effects (font (size 1.27 1.27)) (justify left))
    )
    (property "Footprint" "Resistor_SMD:R_1206_3216Metric" (id 2) (at 154.94 111.76 0)
      (effects (font (size 1.27 1.27)) hide)
    )
    (property "Datasheet" "" (id 3) (at 154.94 111.76 0)
      (effects (font (size 1.27 1.27)) hide)
    )
    (property "LCSC" "C25334" (id 4) (at 154.94 111.76 0)
      (effects (font (size 1.27 1.27)) hide)
    )
    (pin "1" (uuid 9364f1e8-16fb-4181-a978-cd4332380b95))
    (pin "2" (uuid 20c8966c-cb15-43a8-a44e-1788488b78d6))
  )

  (symbol (lib_id "Device:R") (at 163.83 111.76 180) (unit 1)
    (in_bom yes) (on_board yes)
    (uuid dc50ffec-b695-486d-b15c-3641fa3178aa)
    (property "Reference" "R5" (id 0) (at 165.1 110.7186 0)
      (effects (font (size 1.27 1.27)) (justify right))
    )
    (property "Value" "100m" (id 1) (at 165.1 112.903 0)
      (effects (font (size 1.27 1.27)) (justify right))
    )
    (property "Footprint" "Resistor_SMD:R_1206_3216Metric" (id 2) (at 163.83 111.76 0)
      (effects (font (size 1.27 1.27)) hide)
    )
    (property "Datasheet" "" (id 3) (at 163.83 111.76 0)
      (effects (font (size 1.27 1.27)) hide)
    )
    (property "LCSC" "C25334" (id 4) (at 163.83 111.76 0)
      (effects (font (size 1.27 1.27)) hide)
    )
    (pin "1" (uuid 3808250d-1cc8-48c6-a5f4-3b5aebba04e9))
    (pin "2" (uuid 8bc1c724-eab7-4b97-aa30-9271b0d281e3))
  )

  (symbol (lib_id "Device:C_Small") (at 60.96 55.245 180) (unit 1)
    (in_bom yes) (on_board yes)
    (uuid 98ba36b6-13c6-4f30-ab5e-c0d012aec05f)
    (property "Reference" "C5" (id 0) (at 57.15 55.245 0))
    (property "Value" "100n/6V3" (id 1) (at 67.945 55.245 0))
    (property "Footprint" "Capacitor_SMD:C_0402_1005Metric" (id 2) (at 60.96 55.245 0)
      (effects (font (size 1.27 1.27)) hide)
    )
    (property "Datasheet" "~" (id 3) (at 60.96 55.245 0)
      (effects (font (size 1.27 1.27)) hide)
    )
    (property "LCSC" "C1525" (id 4) (at 60.96 55.245 0)
      (effects (font (size 1.27 1.27)) hide)
    )
    (pin "1" (uuid 6ebdd911-27bd-455c-b548-aa13bb927def))
    (pin "2" (uuid 64013827-4ca8-41bb-ba0f-7b775c859cd6))
  )

  (symbol (lib_id "Device:C_Small") (at 73.66 58.42 180) (unit 1)
    (in_bom yes) (on_board yes)
    (uuid 5c6a2499-2715-40a2-9f04-fd0894bf0d5f)
    (property "Reference" "C6" (id 0) (at 69.85 58.42 0))
    (property "Value" "2u2/6V3" (id 1) (at 80.01 58.42 0))
    (property "Footprint" "Capacitor_SMD:C_0402_1005Metric" (id 2) (at 73.66 58.42 0)
      (effects (font (size 1.27 1.27)) hide)
    )
    (property "Datasheet" "~" (id 3) (at 73.66 58.42 0)
      (effects (font (size 1.27 1.27)) hide)
    )
    (property "LCSC" "C12530" (id 4) (at 73.66 58.42 0)
      (effects (font (size 1.27 1.27)) hide)
    )
    (pin "1" (uuid 9b115350-c642-49f6-b528-478b6e77fae0))
    (pin "2" (uuid fb1469e1-4ab8-4c33-9b9f-e0c73ff96984))
  )

  (symbol (lib_id "Device:C_Small") (at 151.765 44.45 180) (unit 1)
    (in_bom yes) (on_board yes)
    (uuid 58ce31b1-6172-426c-bf50-c28fe6179f28)
    (property "Reference" "C2" (id 0) (at 147.955 44.45 0))
    (property "Value" "100n/16V" (id 1) (at 158.75 44.45 0))
    (property "Footprint" "Capacitor_SMD:C_0402_1005Metric" (id 2) (at 151.765 44.45 0)
      (effects (font (size 1.27 1.27)) hide)
    )
    (property "Datasheet" "~" (id 3) (at 151.765 44.45 0)
      (effects (font (size 1.27 1.27)) hide)
    )
    (property "LCSC" "C1525" (id 4) (at 151.765 44.45 0)
      (effects (font (size 1.27 1.27)) hide)
    )
    (pin "1" (uuid 004bbbeb-2fb8-4902-a908-92150e7d9eeb))
    (pin "2" (uuid 509ce920-274d-4553-b048-380c09b98e51))
  )

  (symbol (lib_id "Device:C_Small") (at 156.21 63.5 270) (unit 1)
    (in_bom yes) (on_board yes)
    (uuid 9db4a046-b598-45e6-aa25-f37e05cbdb40)
    (property "Reference" "C8" (id 0) (at 156.21 61.595 90)
      (effects (font (size 1.27 1.27)) (justify bottom))
    )
    (property "Value" "22n/50V" (id 1) (at 156.21 65.405 90)
      (effects (font (size 1.27 1.27)) (justify top))
    )
    (property "Footprint" "Capacitor_SMD:C_0402_1005Metric" (id 2) (at 156.21 63.5 0)
      (effects (font (size 1.27 1.27)) hide)
    )
    (property "Datasheet" "~" (id 3) (at 156.21 63.5 0)
      (effects (font (size 1.27 1.27)) hide)
    )
    (property "LCSC" "C1532" (id 4) (at 156.21 63.5 0)
      (effects (font (size 1.27 1.27)) hide)
    )
    (pin "1" (uuid 945ea7a5-98a9-4641-b449-ac8dc035daf2))
    (pin "2" (uuid c02f2c06-f711-4197-828e-e6ac1e75b241))
  )

  (symbol (lib_id "Device:C_Small") (at 163.83 38.735 180) (unit 1)
    (in_bom yes) (on_board yes)
    (uuid 69d5c287-1cb1-4032-bbcf-b77dd89890ce)
    (property "Reference" "C1" (id 0) (at 160.02 38.735 0))
    (property "Value" "100n/16V" (id 1) (at 170.815 38.735 0))
    (property "Footprint" "Capacitor_SMD:C_0402_1005Metric" (id 2) (at 163.83 38.735 0)
      (effects (font (size 1.27 1.27)) hide)
    )
    (property "Datasheet" "~" (id 3) (at 163.83 38.735 0)
      (effects (font (size 1.27 1.27)) hide)
    )
    (property "LCSC" "C1525" (id 4) (at 163.83 38.735 0)
      (effects (font (size 1.27 1.27)) hide)
    )
    (pin "1" (uuid 551857d5-3ad2-45e7-84b3-2918bf57b236))
    (pin "2" (uuid 2b6cd545-e7cb-4397-95be-b9838d805aa2))
  )

  (symbol (lib_id "Device:C_Small") (at 163.83 58.42 90) (unit 1)
    (in_bom yes) (on_board yes)
    (uuid 81329875-ae3a-4273-a092-eae381ffa7bd)
    (property "Reference" "C7" (id 0) (at 163.83 54.61 90)
      (effects (font (size 1.27 1.27)) (justify bottom))
    )
    (property "Value" "100n/16V" (id 1) (at 163.83 62.23 90)
      (effects (font (size 1.27 1.27)) (justify top))
    )
    (property "Footprint" "Capacitor_SMD:C_0402_1005Metric" (id 2) (at 163.83 58.42 0)
      (effects (font (size 1.27 1.27)) hide)
    )
    (property "Datasheet" "~" (id 3) (at 163.83 58.42 0)
      (effects (font (size 1.27 1.27)) hide)
    )
    (property "LCSC" "C1525" (id 4) (at 163.83 58.42 0)
      (effects (font (size 1.27 1.27)) hide)
    )
    (pin "1" (uuid cbea7cf0-0f45-46d7-9bc8-9dfcb65429f1))
    (pin "2" (uuid a9a4fea7-9865-4264-bd63-6f5b7daf55d6))
  )

  (symbol (lib_id "Device:C") (at 175.26 44.45 180) (unit 1)
    (in_bom yes) (on_board yes)
    (uuid 914f5fea-1763-4bb8-aac7-78942ba9d946)
    (property "Reference" "C3" (id 0) (at 172.72 43.18 0)
      (effects (font (size 1.27 1.27)) (justify left))
    )
    (property "Value" "1u/16V" (id 1) (at 172.72 45.72 0)
      (effects (font (size 1.27 1.27)) (justify left))
    )
    (property "Footprint" "Capacitor_SMD:C_0402_1005Metric" (id 2) (at 175.26 44.45 0)
      (effects (font (size 1.27 1.27)) hide)
    )
    (property "Datasheet" "" (id 3) (at 175.26 44.45 0)
      (effects (font (size 1.27 1.27)) hide)
    )
    (property "LCSC" "C52923" (id 4) (at 175.26 44.45 0)
      (effects (font (size 1.27 1.27)) hide)
    )
    (pin "1" (uuid db545186-7d8a-4805-8ff8-fd27739aaf49))
    (pin "2" (uuid 02df1953-f7f0-4ecc-acdf-e2d0cb7d8273))
  )

  (symbol (lib_id "Device:C") (at 185.42 44.45 180) (unit 1)
    (in_bom yes) (on_board yes)
    (uuid a05848ee-0fef-4e41-870a-9585f5733dd5)
    (property "Reference" "C4" (id 0) (at 187.96 43.18 0)
      (effects (font (size 1.27 1.27)) (justify right))
    )
    (property "Value" "1u/16V" (id 1) (at 187.96 45.72 0)
      (effects (font (size 1.27 1.27)) (justify right))
    )
    (property "Footprint" "Capacitor_SMD:C_0402_1005Metric" (id 2) (at 185.42 44.45 0)
      (effects (font (size 1.27 1.27)) hide)
    )
    (property "Datasheet" "" (id 3) (at 185.42 44.45 0)
      (effects (font (size 1.27 1.27)) hide)
    )
    (property "LCSC" "C52923" (id 4) (at 185.42 44.45 0)
      (effects (font (size 1.27 1.27)) hide)
    )
    (pin "1" (uuid bb0a7b93-dbcb-4f8f-b824-eeb0db4b2456))
    (pin "2" (uuid aa96fb63-7bfa-433b-a8ae-19f88467f042))
  )

  (symbol (lib_id "Connector:Conn_01x08_Male") (at 214.63 53.34 0) (unit 1)
    (in_bom yes) (on_board yes)
    (uuid ad363d9f-4b48-420e-9f74-10e7e3f4290c)
    (property "Reference" "J1" (id 0) (at 214.63 43.053 0))
    (property "Value" "Conn_01x08_Male" (id 1) (at 214.63 66.04 0))
    (property "Footprint" "Connector_PinHeader_2.54mm:PinHeader_1x08_P2.54mm_Vertical" (id 2) (at 214.63 53.34 0)
      (effects (font (size 1.27 1.27)) hide)
    )
    (property "Datasheet" "~" (id 3) (at 214.63 53.34 0)
      (effects (font (size 1.27 1.27)) hide)
    )
    (property "JLCPCB_IGNORE" "1" (id 4) (at 214.63 53.34 0)
      (effects (font (size 1.27 1.27)) hide)
    )
    (pin "1" (uuid b3549646-0327-49f9-889c-c16cebd1289c))
    (pin "2" (uuid 2bedfa64-42c4-483f-b6b1-0d2fc98f339f))
    (pin "3" (uuid 9b0f3759-3650-4941-a41d-a70968032986))
    (pin "4" (uuid 28e2414c-727d-4cd4-86f5-b66de25fe0df))
    (pin "5" (uuid 01b5b3d3-8881-4532-a1a0-355ee37cc75d))
    (pin "6" (uuid 3906a7c7-624a-4a07-b925-20501a4cc492))
    (pin "7" (uuid 47550ce3-a304-475d-980e-55ffb9b3fca0))
    (pin "8" (uuid 05600de3-64aa-42e2-91f1-4bb1fed51c4c))
  )

  (symbol (lib_id "Connector:Conn_01x08_Male") (at 214.63 82.55 0) (unit 1)
    (in_bom yes) (on_board yes)
    (uuid 34fd51b3-1505-4d48-bf4b-9909aa21dd08)
    (property "Reference" "J2" (id 0) (at 214.63 72.263 0))
    (property "Value" "Conn_01x08_Male" (id 1) (at 214.63 95.25 0))
    (property "Footprint" "Connector_PinHeader_2.54mm:PinHeader_1x08_P2.54mm_Vertical" (id 2) (at 214.63 82.55 0)
      (effects (font (size 1.27 1.27)) hide)
    )
    (property "Datasheet" "~" (id 3) (at 214.63 82.55 0)
      (effects (font (size 1.27 1.27)) hide)
    )
    (property "JLCPCB_IGNORE" "1" (id 4) (at 214.63 82.55 0)
      (effects (font (size 1.27 1.27)) hide)
    )
    (pin "1" (uuid d8a7a0a1-3f64-48dc-ab96-3dabd399b71c))
    (pin "2" (uuid 04ad6edf-8940-4f81-b3df-424ac7880e9e))
    (pin "3" (uuid 8051d7e3-e832-4900-9c11-21bc0ffc2c37))
    (pin "4" (uuid 6d0d4c22-8dd8-4b82-8112-fa1871daaa45))
    (pin "5" (uuid b8e5101c-1f5e-49ed-9b85-ecce3c5db840))
    (pin "6" (uuid 5ea21eb7-e096-42dc-acce-a3a1e18b8a53))
    (pin "7" (uuid 6dbfc715-5f9c-46dd-8135-9c6e7389dc58))
    (pin "8" (uuid 6cc17217-a656-420d-9f49-67a79cc1a86a))
  )

  (symbol (lib_id "TMC2208:TMC2208-LA") (at 128.27 76.2 0) (unit 1)
    (in_bom yes) (on_board yes)
    (uuid 94be64d8-daa0-434c-a594-63cb75916021)
    (property "Reference" "U1" (id 0) (at 113.03 45.72 0)
      (effects (font (size 1.27 1.27)) (justify left top))
    )
    (property "Value" "TMC2208-LA" (id 1) (at 113.03 109.22 0)
      (effects (font (size 1.27 1.27)) (justify left bottom))
    )
    (property "Footprint" "TMC2208:QFN-28_EP_5x5_Pitch0.5mm" (id 2) (at 128.27 76.2 0)
      (effects (font (size 1.27 1.27)) hide)
    )
    (property "Datasheet" "" (id 3) (at 128.27 76.2 0)
      (effects (font (size 1.27 1.27)) hide)
    )
    (property "LCSC" "C115944" (id 4) (at 128.27 76.2 0)
      (effects (font (size 1.27 1.27)) hide)
    )
    (pin "1" (uuid 6de9dec4-6e31-495f-8d85-7c755f80b2d4))
    (pin "10" (uuid dc359111-3995-4847-89e6-9c08a005cd03))
    (pin "11" (uuid d3cfc7d3-0740-46ca-b1e6-18ea3997e4b1))
    (pin "12" (uuid 86cc737f-d39c-4624-bac3-0ecd722b0f28))
    (pin "13" (uuid a65ad576-eef7-4789-b115-b6bd6e36cd4b))
    (pin "14" (uuid d77ed33e-c449-40c2-9473-3cb221c50c65))
    (pin "15" (uuid f658032c-3bb0-4241-9a7d-a9b7a0c3ce0f))
    (pin "16" (uuid a7f0fa70-b65b-45d8-8a5d-3dd430ce6dc3))
    (pin "17" (uuid 02b55c5b-5478-4927-bc0f-6ae1a1fadb2c))
    (pin "18" (uuid 11655acb-1cdd-450e-9c3d-1ce11ca9e0c2))
    (pin "19" (uuid ca05bfc5-2b28-436b-b91e-1e76d62d999b))
    (pin "2" (uuid c6bf09b8-24f0-46d5-a5e8-2be76bc961d5))
    (pin "21" (uuid 07a6947e-bdc5-41e6-8196-165c2b18ad66))
    (pin "22" (uuid 28d63f6f-c21d-4786-9edf-1f16cdfe6ab7))
    (pin "23" (uuid 09e3b791-bf3b-4649-81db-db09a9bfce74))
    (pin "24" (uuid 439247de-ffbc-4161-9c5c-07917eede994))
    (pin "26" (uuid 2f1728a9-ab5d-4e03-87da-1909d4f87fe0))
    (pin "27" (uuid 8b000e5a-df4c-4ad7-a9b0-2d22d682dcf4))
    (pin "28" (uuid 1086f64a-69ed-4b20-a311-8d7905ff7ec8))
    (pin "29" (uuid 1c7d98c7-2b1e-4228-a571-ed981e60662e))
    (pin "3" (uuid 81e0961b-9cd1-4d7a-adb5-b5f813fe00e6))
    (pin "4" (uuid 2155cbb4-9435-498f-ab13-3410b7282025))
    (pin "5" (uuid dee96607-9b27-4ef7-a00e-c197cc1b9ebb))
    (pin "6" (uuid 686db30f-d528-47a1-91dd-9f1e806c5564))
    (pin "8" (uuid 87cacb69-f4af-4984-81ad-b50c912150cd))
    (pin "9" (uuid 71268f43-4a47-4bce-b916-289ba17479d1))
  )

  (sheet_instances
    (path "/" (page "#"))
  )

  (symbol_instances
    (path "/5745e341-69d1-4518-bbaf-c1d94a78df06"
      (reference "#FLG01") (unit 1) (value "PWR_FLAG") (footprint "")
    )
    (path "/4a244021-7ef9-45eb-b3a5-849308716ac4"
      (reference "#FLG02") (unit 1) (value "PWR_FLAG") (footprint "")
    )
    (path "/4f8ee8da-3a3b-41d3-b28d-5d0b4985f5a4"
      (reference "#FLG03") (unit 1) (value "PWR_FLAG") (footprint "")
    )
    (path "/24a17a2a-069a-4a02-954d-c8ca8379ad22"
      (reference "#GND01") (unit 1) (value "GND") (footprint "")
    )
    (path "/8302aa25-cd98-4d4f-a810-ae13831d9dae"
      (reference "#GND02") (unit 1) (value "GND") (footprint "")
    )
    (path "/b5bf3211-01cc-4d76-822e-19ca819b8594"
      (reference "#GND03") (unit 1) (value "GND") (footprint "")
    )
    (path "/fe8f4955-2d70-4602-95fe-04541038195c"
      (reference "#GND04") (unit 1) (value "GND") (footprint "")
    )
    (path "/b3eae234-48f0-4573-9f81-20cfc7f104ad"
      (reference "#GND05") (unit 1) (value "GND") (footprint "")
    )
    (path "/522d7b79-2b60-46fb-a295-34da6087baa9"
      (reference "#GND06") (unit 1) (value "GND") (footprint "")
    )
    (path "/c9b94cba-daa1-4bf4-a6a1-be5ba815a8ab"
      (reference "#GND07") (unit 1) (value "GND") (footprint "")
    )
    (path "/ce190095-6e4b-4833-afdf-af104c513610"
      (reference "#GND08") (unit 1) (value "GND") (footprint "")
    )
    (path "/cc0ab97e-3317-418e-96d7-37efd76a02e3"
      (reference "#GND09") (unit 1) (value "GND") (footprint "")
    )
    (path "/624fe066-4ac1-4c08-9297-fa94eb13e819"
      (reference "#GND010") (unit 1) (value "GND") (footprint "")
    )
    (path "/e26e4349-ff47-4d36-8028-6c22e6f5218c"
      (reference "#GND011") (unit 1) (value "GND") (footprint "")
    )
    (path "/9d578339-f697-4720-bf22-02bc8c24a791"
      (reference "#GND012") (unit 1) (value "GND") (footprint "")
    )
    (path "/f149d5ea-5e82-4c09-8218-2ee8146221b9"
      (reference "#P+01") (unit 1) (value "+5V") (footprint "")
    )
    (path "/7cb95c5d-884b-4a30-9b15-61e523bec0fe"
      (reference "#P+02") (unit 1) (value "+5V") (footprint "")
    )
    (path "/69d5c287-1cb1-4032-bbcf-b77dd89890ce"
      (reference "C1") (unit 1) (value "100n/16V") (footprint "Capacitor_SMD:C_0402_1005Metric")
    )
    (path "/58ce31b1-6172-426c-bf50-c28fe6179f28"
      (reference "C2") (unit 1) (value "100n/16V") (footprint "Capacitor_SMD:C_0402_1005Metric")
    )
    (path "/914f5fea-1763-4bb8-aac7-78942ba9d946"
      (reference "C3") (unit 1) (value "1u/16V") (footprint "Capacitor_SMD:C_0402_1005Metric")
    )
    (path "/a05848ee-0fef-4e41-870a-9585f5733dd5"
      (reference "C4") (unit 1) (value "1u/16V") (footprint "Capacitor_SMD:C_0402_1005Metric")
    )
    (path "/98ba36b6-13c6-4f30-ab5e-c0d012aec05f"
      (reference "C5") (unit 1) (value "100n/6V3") (footprint "Capacitor_SMD:C_0402_1005Metric")
    )
    (path "/5c6a2499-2715-40a2-9f04-fd0894bf0d5f"
      (reference "C6") (unit 1) (value "2u2/6V3") (footprint "Capacitor_SMD:C_0402_1005Metric")
    )
    (path "/81329875-ae3a-4273-a092-eae381ffa7bd"
      (reference "C7") (unit 1) (value "100n/16V") (footprint "Capacitor_SMD:C_0402_1005Metric")
    )
    (path "/9db4a046-b598-45e6-aa25-f37e05cbdb40"
      (reference "C8") (unit 1) (value "22n/50V") (footprint "Capacitor_SMD:C_0402_1005Metric")
    )
    (path "/ad363d9f-4b48-420e-9f74-10e7e3f4290c"
      (reference "J1") (unit 1) (value "Conn_01x08_Male") (footprint "Connector_PinHeader_2.54mm:PinHeader_1x08_P2.54mm_Vertical")
    )
    (path "/34fd51b3-1505-4d48-bf4b-9909aa21dd08"
      (reference "J2") (unit 1) (value "Conn_01x08_Male") (footprint "Connector_PinHeader_2.54mm:PinHeader_1x08_P2.54mm_Vertical")
    )
    (path "/e7468cbd-e7db-460f-bd36-398adad3fef6"
      (reference "J3") (unit 1) (value "Conn_01x02_Male") (footprint "Connector_PinHeader_2.54mm:PinHeader_1x02_P2.54mm_Horizontal")
    )
    (path "/7f9f58ca-9e7b-4aba-b3f2-71f9a2562507"
      (reference "R1") (unit 1) (value "20k") (footprint "Resistor_SMD:R_0402_1005Metric")
    )
    (path "/1b07261a-d910-4e41-8a66-f7dbbaa4b182"
      (reference "R2") (unit 1) (value "20k") (footprint "Resistor_SMD:R_0402_1005Metric")
    )
    (path "/b7ef10cb-613d-424a-8492-34f348135486"
      (reference "R3") (unit 1) (value "20k") (footprint "Resistor_SMD:R_0603_1608Metric")
    )
    (path "/f907ba98-d9ee-4209-8de9-9ddaa0322604"
      (reference "R4") (unit 1) (value "100m") (footprint "Resistor_SMD:R_1206_3216Metric")
    )
    (path "/dc50ffec-b695-486d-b15c-3641fa3178aa"
      (reference "R5") (unit 1) (value "100m") (footprint "Resistor_SMD:R_1206_3216Metric")
    )
    (path "/5817b381-279a-42c5-ae10-a7fae2a02210"
      (reference "R6") (unit 1) (value "13k") (footprint "Resistor_SMD:R_0603_1608Metric")
    )
    (path "/94be64d8-daa0-434c-a594-63cb75916021"
      (reference "U1") (unit 1) (value "TMC2208-LA") (footprint "TMC2208:QFN-28_EP_5x5_Pitch0.5mm")
    )
  )
)
