G04 #@! TF.GenerationSoftware,KiCad,Pcbnew,5.99.0-76a6177eb7*
G04 #@! TF.CreationDate,2022-01-02T18:09:31-05:00*
G04 #@! TF.ProjectId,ffcpstep,66666370-7374-4657-902e-6b696361645f,rev?*
G04 #@! TF.SameCoordinates,Original*
G04 #@! TF.FileFunction,Other,Comment*
%FSLAX46Y46*%
G04 Gerber Fmt 4.6, Leading zero omitted, Abs format (unit mm)*
G04 Created by KiCad (PCBNEW 5.99.0-76a6177eb7) date 2022-01-02 18:09:31*
%MOMM*%
%LPD*%
G01*
G04 APERTURE LIST*
G04 APERTURE END LIST*
M02*
